{
  "data": [
    {
      "id": 19336,
      "api_link": "https://api.artic.edu/api/v1/artworks/19336"
    },
    {
      "id": 57163,
      "api_link": "https://api.artic.edu/api/v1/artworks/57163"
    },
    {
      "id": 495,
      "api_link": "https://api.artic.edu/api/v1/artworks/495"
    },
    {
      "id": 57050,
      "api_link": "https://api.artic.edu/api/v1/artworks/57050"
    },
    {
      "id": 16600,
      "api_link": "https://api.artic.edu/api/v1/artworks/16600"
    },
    {
      "id": 59856,
      "api_link": "https://api.artic.edu/api/v1/artworks/59856"
    },
    {
      "id": 81546,
      "api_link": "https://api.artic.edu/api/v1/artworks/81546"
    },
    {
      "id": 16303,
      "api_link": "https://api.artic.edu/api/v1/artworks/16303"
    },
    {
      "id": 8360,
      "api_link": "https://api.artic.edu/api/v1/artworks/8360"
    },
    {
      "id": 122130,
      "api_link": "https://api.artic.edu/api/v1/artworks/122130"
    },
    {
      "id": 16343,
      "api_link": "https://api.artic.edu/api/v1/artworks/16343"
    },
    {
      "id": 95654,
      "api_link": "https://api.artic.edu/api/v1/artworks/95654"
    },
    {
      "id": 873,
      "api_link": "https://api.artic.edu/api/v1/artworks/873"
    },
    {
      "id": 117476,
      "api_link": "https://api.artic.edu/api/v1/artworks/117476"
    },
    {
      "id": 81572,
      "api_link": "https://api.artic.edu/api/v1/artworks/81572"
    },
    {
      "id": 111453,
      "api_link": "https://api.artic.edu/api/v1/artworks/111453"
    },
    {
      "id": 120296,
      "api_link": "https://api.artic.edu/api/v1/artworks/120296"
    },
    {
      "id": 80526,
      "api_link": "https://api.artic.edu/api/v1/artworks/80526"
    },
    {
      "id": 111671,
      "api_link": "https://api.artic.edu/api/v1/artworks/111671"
    },
    {
      "id": 22194,
      "api_link": "https://api.artic.edu/api/v1/artworks/22194"
    },
    {
      "id": 159770,
      "api_link": "https://api.artic.edu/api/v1/artworks/159770"
    },
    {
      "id": 877,
      "api_link": "https://api.artic.edu/api/v1/artworks/877"
    },
    {
      "id": 79349,
      "api_link": "https://api.artic.edu/api/v1/artworks/79349"
    },
    {
      "id": 6002,
      "api_link": "https://api.artic.edu/api/v1/artworks/6002"
    },
    {
      "id": 4089,
      "api_link": "https://api.artic.edu/api/v1/artworks/4089"
    },
    {
      "id": 151108,
      "api_link": "https://api.artic.edu/api/v1/artworks/151108"
    },
    {
      "id": 111623,
      "api_link": "https://api.artic.edu/api/v1/artworks/111623"
    },
    {
      "id": 2158,
      "api_link": "https://api.artic.edu/api/v1/artworks/2158"
    },
    {
      "id": 80538,
      "api_link": "https://api.artic.edu/api/v1/artworks/80538"
    },
    {
      "id": 46092,
      "api_link": "https://api.artic.edu/api/v1/artworks/46092"
    },
    {
      "id": 16183,
      "api_link": "https://api.artic.edu/api/v1/artworks/16183"
    },
    {
      "id": 16496,
      "api_link": "https://api.artic.edu/api/v1/artworks/16496"
    },
    {
      "id": 21668,
      "api_link": "https://api.artic.edu/api/v1/artworks/21668"
    },
    {
      "id": 93780,
      "api_link": "https://api.artic.edu/api/v1/artworks/93780"
    },
    {
      "id": 181460,
      "api_link": "https://api.artic.edu/api/v1/artworks/181460"
    },
    {
      "id": 110760,
      "api_link": "https://api.artic.edu/api/v1/artworks/110760"
    },
    {
      "id": 64489,
      "api_link": "https://api.artic.edu/api/v1/artworks/64489"
    },
    {
      "id": 16253,
      "api_link": "https://api.artic.edu/api/v1/artworks/16253"
    },
    {
      "id": 222002,
      "api_link": "https://api.artic.edu/api/v1/artworks/222002"
    },
    {
      "id": 69041,
      "api_link": "https://api.artic.edu/api/v1/artworks/69041"
    },
    {
      "id": 14620,
      "api_link": "https://api.artic.edu/api/v1/artworks/14620"
    },
    {
      "id": 88632,
      "api_link": "https://api.artic.edu/api/v1/artworks/88632"
    },
    {
      "id": 16151,
      "api_link": "https://api.artic.edu/api/v1/artworks/16151"
    },
    {
      "id": 204686,
      "api_link": "https://api.artic.edu/api/v1/artworks/204686"
    },
    {
      "id": 86323,
      "api_link": "https://api.artic.edu/api/v1/artworks/86323"
    },
    {
      "id": 561,
      "api_link": "https://api.artic.edu/api/v1/artworks/561"
    },
    {
      "id": 111174,
      "api_link": "https://api.artic.edu/api/v1/artworks/111174"
    },
    {
      "id": 97890,
      "api_link": "https://api.artic.edu/api/v1/artworks/97890"
    },
    {
      "id": 111637,
      "api_link": "https://api.artic.edu/api/v1/artworks/111637"
    },
    {
      "id": 14647,
      "api_link": "https://api.artic.edu/api/v1/artworks/14647"
    },
    {
      "id": 81501,
      "api_link": "https://api.artic.edu/api/v1/artworks/81501"
    },
    {
      "id": 109228,
      "api_link": "https://api.artic.edu/api/v1/artworks/109228"
    },
    {
      "id": 49651,
      "api_link": "https://api.artic.edu/api/v1/artworks/49651"
    },
    {
      "id": 12876,
      "api_link": "https://api.artic.edu/api/v1/artworks/12876"
    },
    {
      "id": 72864,
      "api_link": "https://api.artic.edu/api/v1/artworks/72864"
    },
    {
      "id": 105600,
      "api_link": "https://api.artic.edu/api/v1/artworks/105600"
    },
    {
      "id": 64740,
      "api_link": "https://api.artic.edu/api/v1/artworks/64740"
    },
    {
      "id": 97873,
      "api_link": "https://api.artic.edu/api/v1/artworks/97873"
    },
    {
      "id": 110759,
      "api_link": "https://api.artic.edu/api/v1/artworks/110759"
    },
    {
      "id": 893,
      "api_link": "https://api.artic.edu/api/v1/artworks/893"
    },
    {
      "id": 27163,
      "api_link": "https://api.artic.edu/api/v1/artworks/27163"
    },
    {
      "id": 16156,
      "api_link": "https://api.artic.edu/api/v1/artworks/16156"
    },
    {
      "id": 185185,
      "api_link": "https://api.artic.edu/api/v1/artworks/185185"
    },
    {
      "id": 65509,
      "api_link": "https://api.artic.edu/api/v1/artworks/65509"
    },
    {
      "id": 84088,
      "api_link": "https://api.artic.edu/api/v1/artworks/84088"
    },
    {
      "id": 107939,
      "api_link": "https://api.artic.edu/api/v1/artworks/107939"
    },
    {
      "id": 35155,
      "api_link": "https://api.artic.edu/api/v1/artworks/35155"
    },
    {
      "id": 879,
      "api_link": "https://api.artic.edu/api/v1/artworks/879"
    },
    {
      "id": 15705,
      "api_link": "https://api.artic.edu/api/v1/artworks/15705"
    },
    {
      "id": 121629,
      "api_link": "https://api.artic.edu/api/v1/artworks/121629"
    },
    {
      "id": 25743,
      "api_link": "https://api.artic.edu/api/v1/artworks/25743"
    },
    {
      "id": 20155,
      "api_link": "https://api.artic.edu/api/v1/artworks/20155"
    },
    {
      "id": 44775,
      "api_link": "https://api.artic.edu/api/v1/artworks/44775"
    },
    {
      "id": 25770,
      "api_link": "https://api.artic.edu/api/v1/artworks/25770"
    },
    {
      "id": 81516,
      "api_link": "https://api.artic.edu/api/v1/artworks/81516"
    },
    {
      "id": 16295,
      "api_link": "https://api.artic.edu/api/v1/artworks/16295"
    },
    {
      "id": 59927,
      "api_link": "https://api.artic.edu/api/v1/artworks/59927"
    },
    {
      "id": 13745,
      "api_link": "https://api.artic.edu/api/v1/artworks/13745"
    },
    {
      "id": 105604,
      "api_link": "https://api.artic.edu/api/v1/artworks/105604"
    },
    {
      "id": 111615,
      "api_link": "https://api.artic.edu/api/v1/artworks/111615"
    },
    {
      "id": 2179,
      "api_link": "https://api.artic.edu/api/v1/artworks/2179"
    },
    {
      "id": 30701,
      "api_link": "https://api.artic.edu/api/v1/artworks/30701"
    },
    {
      "id": 16549,
      "api_link": "https://api.artic.edu/api/v1/artworks/16549"
    },
    {
      "id": 57148,
      "api_link": "https://api.artic.edu/api/v1/artworks/57148"
    },
    {
      "id": 663,
      "api_link": "https://api.artic.edu/api/v1/artworks/663"
    },
    {
      "id": 79777,
      "api_link": "https://api.artic.edu/api/v1/artworks/79777"
    },
    {
      "id": 16179,
      "api_link": "https://api.artic.edu/api/v1/artworks/16179"
    },
    {
      "id": 55621,
      "api_link": "https://api.artic.edu/api/v1/artworks/55621"
    },
    {
      "id": 72375,
      "api_link": "https://api.artic.edu/api/v1/artworks/72375"
    },
    {
      "id": 100476,
      "api_link": "https://api.artic.edu/api/v1/artworks/100476"
    },
    {
      "id": 36678,
      "api_link": "https://api.artic.edu/api/v1/artworks/36678"
    },
    {
      "id": 16564,
      "api_link": "https://api.artic.edu/api/v1/artworks/16564"
    },
    {
      "id": 97891,
      "api_link": "https://api.artic.edu/api/v1/artworks/97891"
    },
    {
      "id": 35229,
      "api_link": "https://api.artic.edu/api/v1/artworks/35229"
    },
    {
      "id": 116101,
      "api_link": "https://api.artic.edu/api/v1/artworks/116101"
    },
    {
      "id": 198910,
      "api_link": "https://api.artic.edu/api/v1/artworks/198910"
    },
    {
      "id": 5096,
      "api_link": "https://api.artic.edu/api/v1/artworks/5096"
    },
    {
      "id": 81545,
      "api_link": "https://api.artic.edu/api/v1/artworks/81545"
    },
    {
      "id": 30901,
      "api_link": "https://api.artic.edu/api/v1/artworks/30901"
    },
    {
      "id": 111645,
      "api_link": "https://api.artic.edu/api/v1/artworks/111645"
    }
  ],
  "config": {
    "iiif_url": "https://www.artic.edu/iiif/2",
    "website_url": "http://www.artic.edu"
  },
  "pagination": {
    "current_page": 2,
    "limit": 100,
    "offset": 100,
    "total": 1609,
    "total_pages": 17,
    "next_url": null
  }
}